COMPSCIX 415.2 Homework 5/Midterm
…
1.7 EDA (6 points)

Take a look at the txhousing data set that is included with the ggplot2 package and answer these questions:

1.7.1 During what time period is this data from?

max(txhousing\(year) [1] 2015 lastyear <- filter(txhousing, year == 2015) max(lastyear\)month) [1] 7 min(txhousing\(year) [1] 2000 firstyear <- filter(txhousing, year == 2000) min(firstyear\)month) [1] 1

From 1/2000 to 7/2015

1.7.2 How many cities are represented?

txhousing %>% group_by(city) %>% count() 

## # A tibble: 46 x 2
## # Groups:   city [46]
##    city                      n
##    <chr>                 <int>
##  1 Abilene                 187
##  2 Amarillo                187
##  3 Arlington               187
##  4 Austin                  187
##  5 Bay Area                187
##  6 Beaumont                187
##  7 Brazoria County         187
##  8 Brownsville             187
##  9 Bryan-College Station   187
## 10 Collin County           187
## # ... with 36 more rows
…
